{
  "users": [
    {
      "id": "57878699",
      "email": "true@gmail.com",
      "name": "John",
      "surname": "Smith",
      "phone": "+380961918373"
    },
    {
      "id": "213313123",
      "email": "true@gmail.com",
      "name": "John",
      "surname": "Smith",
      "phone": "+380961918373"
    },
    {
      "id": "12333331",
      "email": "true@gmail.com",
      "name": "John",
      "surname": "Smith",
      "phone": "+380961918373"
    }
  ],
  "orders": [
    {
      "id": "o-15100416",
      "customer": {
        "email": "true@gmail.com",
        "name": "John",
        "surname": "Smith",
        "phone": "+380961918373"
      },
      "creationOrder": {
        "positions": [
          "pen"
        ],
        "type": "Опт",
        "provider": "Pen@pen",
        "dateCreateOrder": "23.12.2015",
        "dateFulfillment": "26.12.2015",
        "comment": "Ty for pens and pents"
      }
    }
  ]
}